nyc_bikes_project.utf8.md
…
## # A mable: 1 x 3
##   snaive   mean_model naive  
##   <model>  <model>    <model>
## 1 <SNAIVE> <MEAN>     <NAIVE>

I will now build a forecast based on the above fit in order to predict bike use over the next four months.

forecast_4_month <- filled_fit %>%
  fabletools::forecast(h = 30*4)
forecast_4_month

## # A fable: 360 x 4 [1D]
## # Key:     .model [3]
##    .model date_bike_used bikes_hired .distribution
##    <chr>  <date>               <dbl> <dist>       
##  1 snaive 2019-01-01              10 N(10,  69)   
##  2 snaive 2019-01-02               6 N( 6,  69)   
##  3 snaive 2019-01-03               6 N( 6,  69)   
##  4 snaive 2019-01-04               1 N( 1,  69)   
##  5 snaive 2019-01-05               4 N( 4,  69)   
##  6 snaive 2019-01-06               2 N( 2,  69)   
##  7 snaive 2019-01-07               1 N( 1,  69)   
##  8 snaive 2019-01-08              10 N(10, 138)   
##  9 snaive 2019-01-09               6 N( 6, 138)   
## 10 snaive 2019-01-10               6 N( 6, 138)   
## #  with 350 more rows
…
I will now test the model accuracy by choosing a training dataset from my main dataset, building a forecast on the training set and then plotting the training set forecast against the real data. Ill then calculate the model accuracy.

# check how many days I have in the dataset so I know what to choose for the training dataset

nyc_bikes_date_fill %>%
  distinct(date_bike_used) #365 which includes the 18 filled ones

## # A tibble: 365 x 1
##    date_bike_used
##    <date>        
##  1 2018-01-01    
##  2 2018-01-02    
##  3 2018-01-03    
##  4 2018-01-04    
##  5 2018-01-05    
##  6 2018-01-06    
##  7 2018-01-07    
##  8 2018-01-08    
##  9 2018-01-09    
## 10 2018-01-10    
## #  with 355 more rows
…
